{
    "results": [
                {
                "age": 6,
                "createdAt": "2016-01-20T18:03:34.692Z",
                "location": {
                "__type": "GeoPoint",
                "latitude": 67,
                "longitude": 89
                },
                "name": "MC Donald's",
                "objectId": "qpZhODU26T",
                "updatedAt": "2016-01-20T18:59:28.041Z"
                },
                {
                "age": 3,
                "createdAt": "2016-01-20T18:03:41.862Z",
                "location": {
                "__type": "GeoPoint",
                "latitude": 23,
                "longitude": 45
                },
                "name": "StarBucks",
                "objectId": "xk3QuKHLmH",
                "updatedAt": "2016-01-20T18:59:19.412Z"
                },
                {
                "age": 1,
                "createdAt": "2016-01-22T12:37:11.192Z",
                "location": {
                "__type": "GeoPoint",
                "latitude": 34,
                "longitude": 46
                },
                "name": "Confetti",
                "objectId": "O0z1ffitG7",
                "updatedAt": "2016-03-18T16:49:24.668Z"
                }
                ]
}